<?xml version="1.0" encoding="iso-8859-1"?>
<!-- Generator: Adobe Illustrator 20.1.0, SVG Export Plug-In . SVG Version: 6.00 Build 0)  -->
<svg version="1.1" id="Layer_1" xmlns="http://www.w3.org/2000/svg" xmlns:xlink="http://www.w3.org/1999/xlink" x="0px" y="0px"
	 width="820px" height="130px" viewBox="0 0 820 130" enable-background="new 0 0 820 130" xml:space="preserve">
<path fill="#FFA000" d="M67.9,68.6l-10,10c0.7,1.2,1.3,2.5,1.7,3.9h-7.5C50.8,80.4,48.6,79,46,79c-3.9,0-7,3.1-7,7c0,3.9,3.1,7,7,7
	c2.6,0,4.8-1.4,6.1-3.5h7.5c-1.6,6-7,10.5-13.5,10.5c-2.9,0-5.6-0.9-7.8-2.4l-5,5c3.5,2.7,8,4.4,12.8,4.4c2.3,0,4.5-0.4,6.6-1.1
	l5.4,5.4c-3.6,1.7-7.7,2.7-12,2.7c-8.9,0-16.8-4.1-21.9-10.6l10-10C32.8,91.3,32,88.7,32,86c0-7.7,6.3-14,14-14
	c2.9,0,5.6,0.9,7.8,2.4l5-5c-3.5-2.7-8-4.4-12.8-4.4c-2.3,0-4.5,0.4-6.6,1.1L34,60.7C37.7,59,41.7,58,46,58
	C54.9,58,62.8,62.1,67.9,68.6z M57.7,45.7V9h7V2h-14v49.3C67.8,53.6,81,68.3,81,86c0,8.7-3.2,16.6-8.4,22.8l-5-5
	c4-4.8,6.4-11,6.4-17.8c0-4.3-1-8.3-2.7-12l-5.4,5.4c0.7,2.1,1.1,4.3,1.1,6.6c0,6.9-3.4,13.1-8.6,16.9l10,10
	c-6.1,5.1-13.9,8.1-22.4,8.1c-19.3,0-35-15.7-35-35c0-8.7,3.2-16.6,8.4-22.8l5,5C20.4,73,18,79.2,18,86c0,4.3,1,8.3,2.7,12l5.4-5.4
	C25.4,90.5,25,88.3,25,86c0-6.9,3.4-13.1,8.6-16.9l-10-10c4.9-4.1,11-6.9,17.7-7.8V2h-14v7h7v36.7C16.8,50.7,4,66.9,4,86
	c0,23.2,18.8,42,42,42c23.2,0,42-18.8,42-42C88,66.9,75.2,50.7,57.7,45.7z M169.9,20.3c-0.4,0-0.8-0.1-1.2-0.1
	c-29.5,0-47.8,20.4-47.8,45.5c0,25.1,18.3,45.5,47.8,45.5c0.4,0,0.8,0,1.2-0.1v0c9.4-0.2,18.2-2.7,25.7-6.7V91.7
	c-7,4.7-15.9,7.6-25.7,7.8v0c-0.4,0-0.8,0.1-1.2,0.1c-21.8,0-33.8-15.1-33.8-33.8s12-33.8,33.8-33.8c0.4,0,0.8,0,1.2,0.1v0
	c9.8,0.2,18.7,3.1,25.7,7.8V27C188,22.9,179.3,20.4,169.9,20.3L169.9,20.3z M246.7,36.5c-9.1,0-16.9,3.4-22.2,9.2V21.4h-14V110h14
	V68c0-11.5,7.2-19.8,18.7-19.8s16.3,7.2,16.3,18.7V110h14l0-44.3C273.5,45.9,261.8,36.5,246.7,36.5z M359.8,73.9
	c0,1.2-0.1,2.3-0.2,3.5h-58c1.4,15.9,12.9,22.2,29,22.2c10.9,0,20.3-2.9,24.5-6.9v12.2c-5.2,3.9-14.2,6.4-24.5,6.4
	c-27.2,0-43.2-12.4-43.2-37.3c0-20.6,13-37.3,37.3-37.3C346.6,36.5,359.8,50.1,359.8,73.9z M345.2,65.7c-2-11.8-8.7-17.5-20.4-17.5
	c-13.3,0-20.2,7.3-22.5,17.5H345.2z M460.2,36.5c-11.2,0-20.5,5.1-25.4,13.6c-4.5-9.1-13.3-13.6-23.6-13.6c-9.1,0-16.9,3.4-22.2,9.2
	v-8h-14V110h14V68c0-11.5,7.2-19.8,18.7-19.8c11.5,0,16.3,7.2,16.3,18.7V110h14V68c0-11.5,7.2-19.8,18.7-19.8
	c11.5,0,16.3,7.2,16.3,18.7V110h14V65.7C487,45.9,475.3,36.5,460.2,36.5z M654.7,37.7l-27.1,36.2l27.1,36.2h-15.2L620,84L600.5,110
	h-14h-1.2h-12.2l-11.4-25.7h-42.8L507.4,110H494l39.4-88.7h0.3h13.2h0.3l39,87.7l26.4-35.2l-27.1-36.2h15.2L620,63.8l19.5-26.1
	H654.7z M556.5,72.7l-16.2-36.5L524,72.7H556.5z M737.8,73.9c0,20.6-17.2,37.3-38.5,37.3c-21.3,0-38.5-16.7-38.5-37.3
	s17.2-37.3,38.5-37.3C720.6,36.5,737.8,53.2,737.8,73.9z M723.8,73.9c0-14.2-11-25.7-24.5-25.7c-13.5,0-24.5,11.5-24.5,25.7
	s11,25.7,24.5,25.7C712.9,99.5,723.8,88,723.8,73.9z M816,110l0-44.3c0-19.8-11.7-29.2-26.8-29.2c-9.1,0-16.9,3.4-22.2,9.2v-8h-14
	V110h14V68c0-11.5,7.2-19.8,18.7-19.8c11.5,0,16.3,7.2,16.3,18.7V110H816z"/>
</svg>
